{
  "urls": [
    {
      "url": "https://ghp.ci/https://raw.githubusercontent.com/yescopys/box/51c07ca44885775125d7f037a5233d4b1aac19b7/ah/18cn.json",
      "name": "1.新福利接口"
    },
    {
      "url": "https://mirror.ghproxy.com/https://raw.githubusercontent.com/supermeguo/BoxRes/main/Myuse/catcr.json",
      "name": "2.常规+福利"
    },
    {
      "url": "https://github.moeyy.xyz/https://raw.githubusercontent.com/wwb521/live/main/video.json",
      "name": "3.纯福利"
    }
  ]
}